digraph  {
0 [class="start active", fillcolor=green, fontsize=12, label=START, style=filled];
"-1" [class=end, fillcolor=red, fontsize=12, label=END, style=filled];
1 [class=active, fontsize=12, label=action_session_start];
2 [class=active, fontsize=12, label=action_gap_between_loan];
3 [class="intent dashed active", label="  ?  ", shape=rect];
4 [class="intent active", fillcolor=lightblue, label="how much of interval should be there for applying multiple loans", shape=rect, style=filled];
0 -> "-1"  [class="", key=NONE, label=""];
0 -> 1  [class=active, key=NONE, label=""];
1 -> 4  [class=active, key=0];
2 -> 3  [class=active, key=NONE, label=""];
4 -> 2  [class=active, key=0];
}
